Guide to TwoSampleMR • TwoSampleMR
…
#> 2             reported              kg/m2      TrGPJg             textfile

#> 4             reported              kg/m2      TrGPJg             textfile

#> 5             reported              kg/m2      TrGPJg             textfile

#> 6             reported              kg/m2      TrGPJg             textfile

#> 7             reported              kg/m2      TrGPJg             textfile

We now need to find a suitable GWAS for coronary heart disease. We can search the available studies:

ao[grepl("heart disease", ao$trait), ]

#> # A tibble: 29 x 19

#>    id    trait sample_size   nsnp  year consortium author note  ncase    mr

#>    <chr> <chr>       <int>  <int> <int> <chr>      <chr>  <chr> <int> <int>

#>  1 UKB-… Diag…      463010 9.85e6  2018 MRC-IEU    Ben E… 4120…    28     1

#>  2 7     Coro…      184305 9.46e6  2015 CARDIoGRA… Nikpay <NA>  60801     1

#>  3 UKB-… Diag…      463010 9.85e6  2018 MRC-IEU    Ben E… 4120…    63     1

#>  4 UKB-… Diag…      337199 1.09e7  2017 Neale Lab  Neale  Data…  8755     1

#>  5 UKB-… Diag…      463010 9.85e6  2018 MRC-IEU    Ben E… 4120…    20     1

#>  6 UKB-… Diag…      463010 9.85e6  2018 MRC-IEU    Ben E… 4120…    28     1

#>  7 UKB-… Diag…      463010 9.85e6  2018 MRC-IEU    Ben E… 4120…  5738     1

#>  8 UKB-… Diag…      463010 9.85e6  2018 MRC-IEU    Ben E… 4120…  1195     1

#>  9 UKB-… Diag…      463010 9.85e6  2018 MRC-IEU    Ben E… 4120…   323     1

#> 10 UKB-… Diag…      463010 9.85e6  2018 MRC-IEU    Ben E… 4120…   269     1

#> # … with 19 more rows, and 9 more variables: sex <chr>, pmid <int>,
…
