Outcome data • TwoSampleMR
…
We now need to find a suitable GWAS for coronary heart disease. We can search the available studies:

ao[grepl("heart disease", ao$trait), ]
#> # A tibble: 28 x 22
#>    id     trait   note   group_name  year    mr author consortium sex   priority
#>    <chr>  <chr>   <chr>  <chr>      <int> <int> <chr>  <chr>      <chr>    <int>
#>  1 finn-~ Other ~ NA     public      2020     1 NA     NA         Male~        0
#>  2 ukb-b~ Diagno~ 41204~ public      2018     1 Ben E~ MRC-IEU    Male~        1
#>  3 ieu-a~ Corona~ <NA>   public      2011     1 Peden  C4D        Male~        3
#>  4 finn-~ Other ~ NA     public      2020     1 NA     NA         Male~        0
#>  5 ukb-b~ Diagno~ 41204~ public      2018     1 Ben E~ MRC-IEU    Male~        1
#>  6 finn-~ Major ~ NA     public      2020     1 NA     NA         Male~        0
#>  7 ukb-b~ Diagno~ 41204~ public      2018     1 Ben E~ MRC-IEU    Male~        1
#>  8 finn-~ Rheuma~ NA     public      2020     1 NA     NA         Male~        0
#>  9 ukb-d~ Major ~ NA     public      2018     1 Neale~ NA         Male~        0
#> 10 ukb-d~ Major ~ NA     public      2018     1 Neale~ NA         Male~        0
#> # ... with 18 more rows, and 12 more variables: population <chr>, unit <chr>,
#> #   sample_size <int>, nsnp <int>, build <chr>, subcategory <chr>,
#> #   category <chr>, ontology <chr>, ncase <int>, ncontrol <int>, pmid <int>,
#> #   sd <dbl>
…
