Harmonise data • TwoSampleMR
…
By default, the harmonise_data function uses option 2,
but this can be modified using the action argument,
e.g. harmonise_data(exposure_dat, outcome_dat, action = 3).

Drop duplicate exposure-outcome summary sets

After data harmonisation, users may find that their dataset contains
duplicate exposure-outcome summary sets. This can arise, for example,
when a GWAS consortium has released multiple results from separate GWAS
analyses for the same trait. For example, there are multiple GWAS
summary datasets for body mass index and coronary heart disease:

ao[ao$trait == "Body mass index", c("trait", "id", "pmid", "author", "sample_size", "nsnp")]
#> # A tibble: 24 × 6
#>    trait           id                     pmid author         sample_size   nsnp
#>    <chr>           <chr>                 <int> <chr>                <int>  <int>
#>  1 Body mass index ebi-a-GCST90103751 35051171 Wong HS              21930 6.37e6
#>  2 Body mass index ebi-a-GCST90095039 35399580 Fern<U+00E1>n…      330793 2.40e6
#>  3 Body mass index ebi-a-GCST90095034 35399580 Fern<U+00E1>n…       56161 8.76e6
#>  4 Body mass index ebi-a-GCST90029007 29892013 Loh PR              532396 1.20e7
#>  5 Body mass index ebi-a-GCST90025994 34226706 Barton AR           457756 4.24e6
#>  6 Body mass index ebi-a-GCST90018947 34594039 Sakaue S            359983 1.91e7
#>  7 Body mass index ebi-a-GCST90018727 34594039 Sakaue S            163835 1.25e7
#>  8 Body mass index ieu-a-94           23754948 Randall JC           60586 2.74e6
#>  9 Body mass index ieu-a-2            25673413 Locke AE            339224 2.56e6
#> 10 Body mass index ieu-a-95           23754948 Randall JC           73137 2.74e6
#> # ℹ 14 more rows
…
