Outcome data • TwoSampleMR
…
We now need to find a suitable GWAS for coronary heart disease. We
can search the available studies:

ao[grepl("heart disease", ao$trait), ]
#> # A tibble: 31 × 22
#>    id         trait note  group…¹    mr  year author sex      pmid popul…² unit 
#>    <chr>      <chr> <chr> <chr>   <int> <int> <chr>  <chr>   <int> <chr>   <chr>
#>  1 finn-b-I9… Majo… I9_C… public      1  2021 NA     Male… NA      Europe… NA   
#>  2 ukb-b-3983 Diag… 4120… public      1  2018 Ben E… Male… NA      Europe… SD   
#>  3 ukb-e-I25… I25 … NA    public      1  2020 Pan-U… Male… NA      Africa… NA   
#>  4 ukb-b-2205 Diag… 4120… public      1  2018 Ben E… Male… NA      Europe… SD   
#>  5 ieu-a-7    Coro… NA    public      1  2015 Nikpay Male…  2.63e7 Mixed   log …
#>  6 finn-b-I9… Seco… I9_S… public      1  2021 NA     Male… NA      Europe… NA   
#>  7 ukb-b-7436 Diag… 4120… public      1  2018 Ben E… Male… NA      Europe… SD   
#>  8 ukb-a-534  Diag… NA    public      1  2017 Neale  Male… NA      Europe… SD   
#>  9 ukb-e-I25… I25 … NA    public      1  2020 Pan-U… Male… NA      South … NA   
#> 10 finn-b-I9… Othe… I9_O… public      1  2021 NA     Male… NA      Europe… NA   
#> # … with 21 more rows, 11 more variables: sample_size <int>, nsnp <int>,
#> #   build <chr>, category <chr>, subcategory <chr>, ontology <chr>,
#> #   consortium <chr>, ncase <int>, ncontrol <int>, priority <int>, sd <dbl>,
#> #   and abbreviated variable names ¹​group_name, ²​population
…
